(module LegoHole_4.8mm (layer F.Cu) (tedit 600DB66E)
  (descr "Mounting Hole 4.5mm, no annular")
  (tags "mounting hole 4.5mm no annular")
  (attr virtual)
  (fp_text reference H4 (at 0 -3.2) (layer F.SilkS)
    (effects (font (size 1 1) (thickness 0.15)))
  )
  (fp_text value LegoHole_Pad (at 0 5) (layer F.Fab)
    (effects (font (size 1 1) (thickness 0.15)))
  )
  (fp_line (start -3.9 -3.9) (end -3.9 3.9) (layer F.CrtYd) (width 0.12))
  (fp_line (start 3.9 3.9) (end -3.9 3.9) (layer F.CrtYd) (width 0.12))
  (fp_line (start 3.9 3.9) (end 3.9 -3.9) (layer F.CrtYd) (width 0.12))
  (fp_line (start -3.9 -3.9) (end 3.9 -3.9) (layer F.CrtYd) (width 0.12))
  (fp_text user %R (at 0.3 0) (layer F.Fab)
    (effects (font (size 1 1) (thickness 0.15)))
  )
  (pad "" np_thru_hole circle (at 0 0) (size 4.8 4.8) (drill 4.8) (layers *.Cu *.Mask))
)
